{
  "widgets": {
    "age-gate-input-form": {
      "cssProperties": {},
      "variable": "age-gate-input-form",
      "widgetProperties": {
        "autoCheck": false,
        "dayPlaceholder": "dd",
        "illegalAgeText": "",
        "invalidDob": "",
        "monthPlaceholder": "mm",
        "noNumberText": "",
        "yearPlaceholder": "yyyy"
      }
    },
    "age-gate-logo": {
      "cssProperties": {},
      "variable": "age-gate-logo",
      "widgetProperties": {
        "alternativeText": "",
        "description": "",
        "height": "",
        "image": "",
        "margin": "",
        "width": ""
      }
    },
    "age-gate-sub-title": {
      "cssProperties": {},
      "variable": "age-gate-sub-title",
      "widgetProperties": {
        "color": "",
        "margin": "",
        "textDropShadow": "",
        "titleText": ""
      }
    },
    "age-gate-text-area": {
      "cssProperties": {},
      "variable": "age-gate-text-area",
      "widgetProperties": {
        "color": "",
        "companyLinkTarget": "",
        "companyLinkText": "",
        "companyLinkUrl": "",
        "image": "",
        "imageTargetUrl": "",
        "margin": ""
      }
    },
    "age-gate-title": {
      "cssProperties": {},
      "variable": "age-gate-title",
      "widgetProperties": {
        "color": "",
        "margin": "",
        "textDropShadow": "",
        "titleText": ""
      }
    },
    "company-info": {
      "cssProperties": {},
      "variable": "company-info",
      "widgetProperties": {
        "color": "",
        "margin": "",
        "textDropShadow": "",
        "titleText": ""
      }
    },
    "copy-right-text": {
      "cssProperties": {},
      "variable": "copy-right-text",
      "widgetProperties": {
        "color": "",
        "margin": "",
        "textDropShadow": "",
        "titleText": ""
      }
    },
    "submit-button": {
      "cssProperties": {
        "activeBackgroundColor": "#7B0303",
        "activeBorderColor": "#1F0101",
        "activeColor": "#CE3636",
        "backgroundColor": "#890000",
        "borderColor": "#000000",
        "color": "#FA0E0E",
        "hoverBackgroundColor": "#5D0000",
        "hoverBorderColor": "#300000",
        "hoverColor": "#EB0000"
      },
      "variable": "submit-button",
      "widgetProperties": {
        "buttonText": "",
        "margin": ""
      }
    }
  }
}