{
  "ccp01Heading": "WE ARE NOT IN YOUR AREA.. YET ",
  "ccp02InfoForNewsletter": "Pernod Ricard doesn\u2019t serve your Zip Code yet, but options are always expanding. Sign up for our newsletter and we\u2019ll keep you updated on the store as we expand.",
  "ccp03InfoForClaimCoupon": "Pernod Ricard doesn\u2019t serve your Zip Code yet, but options are always expanding. For now, click below to claim a coupon for your next Pernod Ricard purchase.",
  "ccp04EmailPlaceholder": "Email address",
  "ccp05NewsletterButtonText": "submit",
  "ccp06SuccessSubscription": "Successfully subscribed to newsletters.",
  "ccp07AlreadySubscription": "User already subscribed to newsletters.",
  "ccp08OrText": "or",
  "ccp09ChangeAddressButtonText": "CHANGE DELIVERY ADDRESS."
}
