{
  "fbt01Title": "More Filters",
  "fbt02VendorTitle": "Powered by",
  "fbt03TooltipTextLine1": "Somethingbottled.com is powered and operated by ReserveBar, an independent company. Any orders involving the sale of alcohol will be fulfilled by a licensed retailer in the ReserveBar delivery program",
  "fbt04TooltipTextLine2": "."
}
