{
  "foo01NewsletterHeading": "JOIN OUR NEWSLETTER",
  "foo02NewsletterInfo": "Find the perfect gift. Be the first to know about new arrivals, exclusive news and exceptional experiences.",
  "foo03EmailPlaceholder": "Enter Your Email address",
  "foo04EmailSubmitButton": "sign up",
  "foo05NewsletterSuccessSubscription": "Successfully subscribed to newsletters.",
  "foo06NewsletterAlreadySubscription": "User already subscribed to newsletters.",
  "foo07CopyRightText":"Enjoy our quality responsibly. Over 21s only © Pernod Ricard USA"
}
