{
  "lsb01EnterAddressLabel": "Enter",
  "lsb02ChangeAddressLabel": "Change",
  "lsb03EnterAddressTextLine": "delivery address",
  "lsb04AddressPlaceholder": "Enter your location to see local prices now..."
}
