{
  "pmt04ChangeAddressButton": {
    "text": "YES, CHANGE MY ADDRESS",
    "path": "/drinks",
    "target": "_self"
  },
  "pmt05ResetPasswordButton": {
    "text": "Reset password",
    "path": "/forget",
    "target": "_self"
  },
  "pmt06ViewCartButton": {
    "text": "CONTINUE SHOPPING",
    "path": "/drinks",
    "target": "_self"
  },
  "pmt07AddAddressButton": {
    "text": "CONFIRM",
    "path": "/address",
    "target": "_self"
  }
}
