{
  "snt01AccountPageLink": {
    "text": "ACCOUNT SETTINGS",
    "path": "/account/security",
    "target": "_self"
  },
  "snt02OrderHistoryPageLink": {
    "text": "ORDERS",
    "path": "/orderReview",
    "target": "_self"
  },
  "snt03AddressPageLink": {
    "text": "ADDRESS",
    "path": "/address",
    "target": "_self"
  }
}
